{
   "autoload": [ ],
   "bundle_name": "cerna_nowsync",
   "dependencies": [
      {
         "id": "ds.base",
         "version": "1.17.0"
      }
   ],
   "hidden_bundle": "0",
   "icon": "fontawesome:power-off",
   "icon_color": "#f40b0b",
   "id": "dev.cerna_nowsync",
   "install_validation_script": "",
   "page_banner": "",
   "parametrics_form": null,
   "platform_version": "",
   "schema_version": "0.0",
   "shell_layout": null,
   "theme": "",
   "title": "Cerna NowSync",
   "vendor": "dev",
   "version": "0.1.0"
}