{
  "bucket_data": {
    "rest_api": {
      "efaa7e6c1b014ff9b1462ec9cb153a2e": {
        "created": "1612938074793",
        "format": "0",
        "id": "efaa7e6c1b014ff9b1462ec9cb153a2e",
        "meta_classification": "",
        "meta_datatag": "",
        "meta_schema": "",
        "name": "ServiceNow ebond insert",
        "owner": "__SYSTEM_USER__",
        "path": "servicenow/insert",
        "public": "0",
        "ref_display": "ServiceNow ebond insert",
        "schema_version": "0.0",
        "script": "separate_file://bucket/data/rest_api-efaa7e6c1b014ff9b1462ec9cb153a2e-script.js",
        "system_updated": "0"
      }
    }
  }
}