{
  "bucket_data": {
    "schema": {
      "9dd667bbb3774dc3a2b8f2e235987639": {
        "apply": "optionally",
        "created": "1612338142207",
        "id": "9dd667bbb3774dc3a2b8f2e235987639",
        "labels": {
          "label": "ServiceNow",
          "labelp": "ServiceNows"
        },
        "meta_datatag": "",
        "meta_schema": "",
        "owner": "__SYSTEM_USER__",
        "parent": "srqk6j6s",
        "schema_id": "servicenow",
        "schema_version": "0.0",
        "slots": {
          "display_rules": [ ],
          "layout": {
            "layout": [
              {
                "colData": [ ],
                "cols": [
                  [
                    {
                      "name": "servicenow_id",
                      "type": "slot"
                    }
                  ]
                ],
                "guid": "e34y2id9",
                "type": "section"
              }
            ],
            "pageData": { },
            "version": 1
          },
          "slots": {
            "servicenow_id": {
              "attributes": { },
              "bundle": "ds.sm",
              "labels": {
                "label": "ServiceNow ID",
                "labelp": "ServiceNow IDs"
              },
              "name": "servicenow_id",
              "type": "string"
            }
          },
          "slotsChanged": true
        },
        "stuck": "0",
        "system_updated": "0"
      }
    }
  }
}